…
``` r
set.seed(11)
imp_train <- mice(train, m = 5, method = method, print = FALSE)
```

## 3. Perform cluster analyses: do samples cluster by sex/Gender?

Pulling out first imputed dataset

``` r
(imp_train_df <- complete(imp_train) %>% as_tibble())
```

    # A tibble: 1,478 × 19
       Gender    Age  Height Weight   FHO  FAVC  FCVC   NCP CAEC   SMOKE  CH2O   SCC
        <dbl>  <dbl>   <dbl>  <dbl> <dbl> <dbl> <dbl> <dbl> <fct>  <dbl> <dbl> <dbl>
     1      0 -1.6   -0.500  -2         1     0 0.5   0.75  Somet…     0 0.75      0
     2      0 -1.86  -0.244   4.16      1     1 0.75  0.75  Somet…     0 0.371     0
     3      1 -1.7    0.537   2.65      1     1 0.685 0.633 Somet…     0 0.520     0
     4      1 -2.62   0.167  -2.89      1     0 0.602 0.75  Somet…     0 0.319     0
     5      0 -2.20  -0.500   0.421     1     1 0.715 0.75  Somet…     0 0.25      0
     6      0 -2.3   -1.7    -2.5       1     1 0.5   0.75  Somet…     0 0.25      0
     7      1 -2.23   0.400  -2.88      0     1 0.513 0.661 Somet…     0 0.589     0
     8      0 -0.369  0.0140  0.3       1     1 0.564 0.756 Somet…     0 0.5       0
     9      0 -1.82  -1.00   -1.60      1     1 0.527 0.75  Somet…     0 0.527     0
    10      1 -2      2.8     4.5       1     1 0.5   0.75  Always     0 0.75      0
    # ℹ 1,468 more rows
    # ℹ 7 more variables: FAF <dbl>, TUE <dbl>, CALC <fct>, MTRANS <fct>,
    #   WeightClass <dbl>, obese <dbl>, id <int>
…
